<svg width="21" height="22" viewBox="0 0 21 22" fill="none" xmlns="http://www.w3.org/2000/svg">
<g id="User">
<circle id="Oval" cx="10.2647" cy="5.55882" r="4.80882" fill="white" fill-opacity="0.1" stroke="white" stroke-width="1.5"/>
<path id="Rectangle" d="M1.00001 21V18.2693C1.00001 15.684 4.69379 13.5882 10.2647 13.5882C15.8356 13.5882 19.5294 15.684 19.5294 18.2693L19.5294 21" stroke="white" stroke-width="1.5" stroke-linecap="round"/>
</g>
</svg>
